{
  "pluginsFile": "tests/e2e/plugins/index.js",
  "env": {
    "CLIENT_ROOT": "http://localhost:3000",
    "SERVER_ROOT": "http://localhost:3000"
  },
  "baseUrl": "http://localhost:3000",
  "videoCompression": 0
}
