<svg width="20" height="20" viewBox="0 0 20 20" fill="none" xmlns="http://www.w3.org/2000/svg">
<path fill-rule="evenodd" clip-rule="evenodd" d="M6.28555 15.0753C6.88184 15.2786 7.15969 15.8311 6.90615 16.3093L5.25321 19.427C4.99968 19.9053 4.31075 20.1281 3.71445 19.9247C3.11816 19.7214 2.84031 19.1689 3.09385 18.6906L4.74679 15.5729C5.00032 15.0947 5.68925 14.8719 6.28555 15.0753Z" fill="#FF0202"/>
<path fill-rule="evenodd" clip-rule="evenodd" d="M13.7145 15.0753C13.1181 15.2786 12.8403 15.8311 13.0938 16.3093L14.7468 19.427C15.0004 19.9053 15.6893 20.1281 16.2855 19.9247C16.8819 19.7214 17.1597 19.1689 16.9062 18.6906L15.2532 15.5729C14.9996 15.0947 14.3107 14.8719 13.7145 15.0753Z" fill="#FF0202"/>
<path fill-rule="evenodd" clip-rule="evenodd" d="M10.0378 6C10.611 6 11.0757 6.38684 11.0757 6.86403V9.27196H12.9622C13.5354 9.27196 14 9.65876 14 10.136C14 10.6132 13.5354 11 12.9622 11H10.0378C9.46465 11 9 10.6132 9 10.136V6.86403C9 6.38684 9.46465 6 10.0378 6Z" fill="#FF0202"/>
<path fill-rule="evenodd" clip-rule="evenodd" d="M9.99999 16.0117C13.2965 16.0117 15.9959 13.335 15.9959 10C15.9959 6.66498 13.2965 3.98831 9.99999 3.98831C6.70346 3.98831 4.00409 6.66498 4.00409 10C4.00409 13.335 6.70346 16.0117 9.99999 16.0117ZM9.99999 18C14.4183 18 18 14.4183 18 10C18 5.58173 14.4183 2 9.99999 2C5.58171 2 2 5.58173 2 10C2 14.4183 5.58171 18 9.99999 18Z" fill="#FF0202"/>
<path d="M2.54801 8C2.09035 7.65902 1.71321 7.21294 1.44546 6.69588C1.1777 6.17884 1.02641 5.60452 1.00316 5.01683C0.979903 4.42915 1.08531 3.84369 1.3113 3.30522C1.53729 2.76675 1.87789 2.28952 2.30705 1.91007C2.73621 1.5306 3.24255 1.25894 3.78736 1.11586C4.33218 0.972783 4.90101 0.962073 5.45038 1.08456C5.99976 1.20704 6.5151 1.45946 6.957 1.82253C7.3989 2.1856 7.75567 2.64969 8 3.1793L6.11574 4.13254C6.01021 3.9038 5.85614 3.70338 5.66529 3.54658C5.47444 3.38978 5.25188 3.28076 5.01462 3.22786C4.77736 3.17497 4.5317 3.1796 4.29641 3.24139C4.06112 3.30318 3.84244 3.4205 3.6571 3.58439C3.47176 3.74827 3.32466 3.95436 3.22707 4.18692C3.12947 4.41947 3.08394 4.67231 3.09399 4.92611C3.10403 5.17992 3.16937 5.42795 3.285 5.65125C3.40064 5.87455 3.56351 6.0672 3.76117 6.21447L2.54801 8Z" fill="#FF0202"/>
<path d="M17.452 8C17.9097 7.65902 18.2868 7.21294 18.5545 6.69588C18.8223 6.17884 18.9736 5.60452 18.9968 5.01683C19.0201 4.42915 18.9147 3.84369 18.6888 3.30522C18.4627 2.76675 18.1221 2.28952 17.693 1.91007C17.2639 1.5306 16.7574 1.25894 16.2127 1.11586C15.6679 0.972783 15.0991 0.962073 14.5497 1.08456C14.0003 1.20704 13.485 1.45946 13.0431 1.82253C12.6012 2.1856 12.2444 2.64969 12 3.1793L13.8843 4.13254C13.9898 3.9038 14.1439 3.70338 14.3348 3.54658C14.5256 3.38978 14.7482 3.28076 14.9854 3.22786C15.2227 3.17497 15.4683 3.1796 15.7036 3.24139C15.9389 3.30318 16.1576 3.4205 16.3429 3.58439C16.5282 3.74827 16.6754 3.95436 16.773 4.18692C16.8706 4.41947 16.9161 4.67231 16.906 4.92611C16.896 5.17992 16.8307 5.42795 16.715 5.65125C16.5994 5.87455 16.4366 6.0672 16.2389 6.21447L17.452 8Z" fill="#FF0202"/>
</svg>
